{
  "$schema": "https://unpkg.com/@changesets/config@1.6.0/schema.json",
  "changelog": [
    "@changesets/changelog-github",
    {
      "repo": "rx-ts/mono-lib-boilerplate"
    }
  ],
  "commit": false,
  "linked": [],
  "access": "restricted",
  "baseBranch": "main",
  "updateInternalDependencies": "patch",
  "ignore": []
}
